{
  "version": "0.10.13",
  "identifier": "Apple_Demo",
  "title": "Simple Left Aligned Article",
  "language": "en",
  "layout": {
    "columns": 7,
    "width": 1024,
    "margin": 75,
    "gutter": 20
  },
  "components": [
    {
      "role": "header",
      "layout": "headerImageLayout",
      "style": "headerImageStyle"
    },
    {
      "role": "author",
      "layout": "default_author_layout",
      "text": "Byline | Publisher | Date",
      "textStyle": "default_author_text_style"
    },
    {
      "role": "body",
      "text": "Sed ut perspiciatis unde omnis iste natus error sit voluptatem accusantium doloremque laudantium, totam rem aperiam, eaque ipsa quae ab illo inventore veritatis et quasi architecto beatae vitae dicta sunt explicabo. Nemo enim ipsam voluptatem quia voluptas sit aspernatur aut odit aut fugit, sed quia consequuntur magni dolores eos qui ratione voluptatem sequi nesciunt. Neque porro quisquam est, qui dolorem ipsum quia dolor sit amet, consectetur, adipisci velit, sed quia non numquam eius modi tempora incidunt ut labore et dolore magnam aliquam quaerat voluptatem. Ut enim ad minima veniam, quis nostrum exercitationem ullam corporis suscipit laboriosam, nisi ut aliquid ex ea commodi consequatur?\n\nQuis autem vel eum iure reprehenderit qui in ea voluptate velit esse quam nihil molestiae consequatur, vel illum qui dolorem eum fugiat quo voluptas nulla pariatur? At vero eos et accusamus et iusto odio dignissimos ducimus qui blanditiis praesentium voluptatum deleniti atque corrupti quos dolores et quas molestias excepturi sint occaecati cupiditate non provident, similique sunt in culpa qui officia deserunt mollitia animi, id est laborum et dolorum fuga. Et harum quidem rerum facilis est et expedita distinctio. Nam libero tempore, cum soluta nobis est eligendi optio cumque nihil impedit quo minus id quod maxime placeat facere possimus, omnis voluptas assumenda est, omnis dolor repellendus.\n\nTemporibus autem quibusdam et aut officiis debitis aut rerum necessitatibus saepe eveniet ut et voluptates repudiandae sint et molestiae non recusandae. Itaque earum rerum hic tenetur a sapiente delectus, ut aut reiciendis voluptatibus maiores alias consequatur aut perferendis doloribus asperiores repellat. Sed ut perspiciatis unde omnis iste natus error sit voluptatem accusantium doloremque laudantium, totam rem aperiam, eaque ipsa quae ab illo inventore veritatis et quasi architecto beatae vitae dicta sunt explicabo. Nemo enim ipsam voluptatem quia voluptas sit aspernatur aut odit aut fugit, sed quia consequuntur magni dolores eos qui ratione voluptatem sequi nesciunt.",
      "layout": "default_body_layout",
      "textStyle": "default_body_text_style"
    },
    {
      "role": "banner_advertisement",
      "bannerType": "standard",
      "layout": "default_banner_advertisement_layout"
    }
  ],
  "componentTextStyles": {
    "default_author_text_style": {
      "fontName": "AvenirNext-Medium",
      "fontSize": 16,
      "textColor": "#000",
      "textAlignment": "left"
    },
    "default_body_text_style": {
      "fontName": "AvenirNext-Regular",
      "fontSize": 16,
      "lineHeight": 24,
      "textColor": "#000",
      "textAlignment": "left",
      "dropCapStyle": {
        "numberOfLines": 2,
        "numberOfCharacters": 1
      }
    },
    "default_caption_text_style": {
      "fontName": "AvenirNext-Medium",
      "fontSize": 14,
      "textColor": "#000",
      "textAlignment": "left",
      "lineHeight": 17
    },
    "default_heading1_text_style": {
      "fontName": "AvenirNext-Bold",
      "fontSize": 24,
      "textColor": "#000"
    },
    "default_heading2_text_style": {
      "fontName": "AvenirNext-Bold",
      "fontSize": 18,
      "textColor": "#000"
    },
    "default_heading3_text_style": {
      "fontName": "AvenirNext-Bold",
      "fontSize": 16,
      "textColor": "#000"
    },
    "default_heading4_text_style": {
      "fontName": "AvenirNext-Bold",
      "fontSize": 14,
      "textColor": "#000"
    },
    "default_heading5_text_style": {
      "fontName": "AvenirNext-Bold",
      "fontSize": 12,
      "textColor": "#000"
    },
    "default_heading6_text_style": {
      "fontName": "AvenirNext-Bold",
      "fontSize": 10,
      "textColor": "#000"
    },
    "default_intro_text_style": {
      "fontName": "AvenirNext-Regular",
      "fontSize": 16,
      "textColor": "#000",
      "textAlignment": "left",
      "lineHeight": 24
    },
    "default_pullquote_text_style": {
      "fontName": "AvenirNext-Bold",
      "fontSize": 48,
      "textColor": "#000"
    },
    "default_title_text_style": {
      "textAlignment": "left",
      "fontName": "AvenirNext-Bold",
      "fontSize": 48,
      "textColor": "#000"
    }
  },
  "componentStyles": {
    "headerImageStyle": {
      "fill": {
        "type": "image",
        "URL": "bundle://header.jpg",
        "fillMode": "cover",
        "verticalAlignment": "center"
      }
    }
  },
  "componentLayouts": {
    "headerImageLayout": {
      "columnStart": 0,
      "columnSpan": 7,
      "ignoreDocumentMargin": true,
      "minimumHeight": "42vh"
    },
    "default_banner_advertisement_layout": {
      "columnStart": 0,
      "columnSpan": 7,
      "margin": {
        "top": 25,
        "bottom": 25
      }
    },
    "default_author_layout": {
      "columnStart": 0,
      "columnSpan": 7,
      "margin": {
        "top": 10,
        "bottom": 10
      }
    },
    "default_body_layout": {
      "columnStart": 0,
      "columnSpan": 5,
      "margin": {
        "top": 25,
        "bottom": 25
      }
    },
    "default_caption_layout": {
      "columnStart": 0,
      "columnSpan": 7,
      "margin": {
        "top": 10,
        "bottom": 10
      }
    },
    "default_container_layout": {
      "columnStart": 0,
      "columnSpan": 7,
      "margin": {
        "top": 0,
        "bottom": 25
      }
    },
    "default_divider_layout": {
      "columnStart": 0,
      "columnSpan": 7,
      "margin": {
        "top": 25,
        "bottom": 25
      }
    },
    "default_figure_layout": {
      "columnStart": 3,
      "columnSpan": 4,
      "margin": {
        "top": 15,
        "bottom": 15
      }
    },
    "default_gallery_layout": {
      "columnStart": 0,
      "columnSpan": 7,
      "margin": {
        "top": 25,
        "bottom": 25
      },
      "ignoreDocumentMargin": "left"
    },
    "default_header_layout": {
      "columnStart": 0,
      "columnSpan": 7,
      "margin": {
        "top": 0,
        "bottom": 25
      }
    },
    "default_heading1_layout": {
      "columnStart": 0,
      "columnSpan": 5,
      "margin": {
        "top": 15,
        "bottom": 15
      }
    },
    "default_heading2_layout": {
      "columnStart": 0,
      "columnSpan": 5,
      "margin": {
        "top": 15,
        "bottom": 15
      }
    },
    "default_heading3_layout": {
      "columnStart": 0,
      "columnSpan": 5,
      "margin": {
        "top": 15,
        "bottom": 15
      }
    },
    "default_heading4_layout": {
      "columnStart": 0,
      "columnSpan": 5,
      "margin": {
        "top": 15,
        "bottom": 15
      }
    },
    "default_heading5_layout": {
      "columnStart": 0,
      "columnSpan": 5,
      "margin": {
        "top": 15,
        "bottom": 15
      }
    },
    "default_heading6_layout": {
      "columnStart": 0,
      "columnSpan": 5,
      "margin": {
        "top": 15,
        "bottom": 15
      }
    },
    "default_intro_layout": {
      "columnStart": 0,
      "columnSpan": 5,
      "margin": {
        "top": 25,
        "bottom": 25
      }
    },
    "default_mosaic_layout": {
      "columnStart": 0,
      "columnSpan": 7,
      "margin": {
        "top": 25,
        "bottom": 25
      }
    },
    "default_photo_layout": {
      "columnStart": 3,
      "columnSpan": 4,
      "margin": {
        "top": 15,
        "bottom": 15
      }
    },
    "default_pullquote_layout": {
      "columnStart": 3,
      "columnSpan": 4,
      "margin": {
        "top": 15,
        "bottom": 15
      }
    },
    "default_title_layout": {
      "columnStart": 0,
      "columnSpan": 7,
      "margin": {
        "top": 15,
        "bottom": 15
      }
    },
    "default_section_layout": {
      "columnStart": 0,
      "columnSpan": 7,
      "margin": {
        "top": 0,
        "bottom": 25
      }
    }
  }
}